Einführung in R & RStudio – Tag 1 – Methods
…
filter() – Fälle auswählen

mutate() – neue Variablen erstellen

arrange() – sortieren

rename() – Variablen umbenennen

Bevor wir mehrere Schritte kombinieren,

schauen wir uns ein einzelnes, einfaches Beispiel an.

select(df_csv, age, sex)

# A tibble: 5,342 × 2
     age   sex
   <dbl> <dbl>
 1    54     2
 2    53     1
 3    89     2
 4    79     1
 5    62     2
 6    23     1
 7    31     2
 8    57     2
 9    68     1
10    51     2
# ℹ 5,332 more rows

Der select() wählt Variablen aus und macht aus den einen neuen Datensatz (tibble fungiert genauso wie ein Data Frame).

CautionAchtung

Ohne die korrekte Zuweisung, wird kein neues Objekt erstellt!

df_2var <- select(df_csv, age, sex)

df_2var

# A tibble: 5,342 × 2
     age   sex
   <dbl> <dbl>
 1    54     2
 2    53     1
 3    89     2
 4    79     1
 5    62     2
 6    23     1
 7    31     2
 8    57     2
 9    68     1
10    51     2
# ℹ 5,332 more rows
…
neue Variablen erstellen (Summenwerte)

Variablen umbenennen

Wir wählen nun wieder unsere Variablen aus und filtern diese aber nun. Wir wollen nun alle Personen über 30 Jahre behalten.

Alternative 1
Alternative 2

df_2var <- select(df_csv, age, sex)

df_2var 

# A tibble: 5,342 × 2
     age   sex
   <dbl> <dbl>
 1    54     2
 2    53     1
 3    89     2
 4    79     1
 5    62     2
 6    23     1
 7    31     2
 8    57     2
 9    68     1
10    51     2
# ℹ 5,332 more rows

#| echo: true

df_2var <- filter(select(df_csv, age, sex), age >= 30)

df_2var

# A tibble: 4,683 × 2
     age   sex
   <dbl> <dbl>
 1    54     2
 2    53     1
 3    89     2
 4    79     1
 5    62     2
 6    31     2
 7    57     2
 8    68     1
 9    51     2
10    57     1
# ℹ 4,673 more rows
…
#| echo: true

df_2var <- df_csv |>
select(age, sex) |>
filter(age >= 30)

df_2var

# A tibble: 4,683 × 2
     age   sex
   <dbl> <dbl>
 1    54     2
 2    53     1
 3    89     2
 4    79     1
 5    62     2
 6    31     2
 7    57     2
 8    68     1
 9    51     2
10    57     1
# ℹ 4,673 more rows
…
